%YAML 1.1
%TAG !u! tag:unity3d.com,2011:
--- !u!29 &1
OcclusionCullingSettings:
  m_ObjectHideFlags: 0
  serializedVersion: 2
  m_OcclusionBakeSettings:
    smallestOccluder: 5
    smallestHole: 0.25
    backfaceThreshold: 100
  m_SceneGUID: 00000000000000000000000000000000
  m_OcclusionCullingData: {fileID: 0}
--- !u!104 &2
RenderSettings:
  m_ObjectHideFlags: 0
  serializedVersion: 9
  m_Fog: 0
  m_FogColor: {r: 0.2264151, g: 0.2264151, b: 0.2264151, a: 1}
  m_FogMode: 3
  m_FogDensity: 0.02
  m_LinearFogStart: 0
  m_LinearFogEnd: 300
  m_AmbientSkyColor: {r: 0.212, g: 0.227, b: 0.259, a: 1}
  m_AmbientEquatorColor: {r: 0.114, g: 0.125, b: 0.133, a: 1}
  m_AmbientGroundColor: {r: 0.047, g: 0.043, b: 0.035, a: 1}
  m_AmbientIntensity: 1
  m_AmbientMode: 0
  m_SubtractiveShadowColor: {r: 0.42, g: 0.478, b: 0.627, a: 1}
  m_SkyboxMaterial: {fileID: 2100000, guid: d1385980456cd2044b282d73625457db, type: 2}
  m_HaloStrength: 0.5
  m_FlareStrength: 1
  m_FlareFadeSpeed: 3
  m_HaloTexture: {fileID: 0}
  m_SpotCookie: {fileID: 10001, guid: 0000000000000000e000000000000000, type: 0}
  m_DefaultReflectionMode: 0
  m_DefaultReflectionResolution: 128
  m_ReflectionBounces: 1
  m_ReflectionIntensity: 1
  m_CustomReflection: {fileID: 0}
  m_Sun: {fileID: 0}
  m_IndirectSpecularColor: {r: 0, g: 0, b: 0, a: 1}
  m_UseRadianceAmbientProbe: 0
--- !u!157 &3
LightmapSettings:
  m_ObjectHideFlags: 0
  serializedVersion: 11
  m_GIWorkflowMode: 1
  m_GISettings:
    serializedVersion: 2
    m_BounceScale: 1
    m_IndirectOutputScale: 1
    m_AlbedoBoost: 1
    m_EnvironmentLightingMode: 0
    m_EnableBakedLightmaps: 1
    m_EnableRealtimeLightmaps: 1
  m_LightmapEditorSettings:
    serializedVersion: 12
    m_Resolution: 2
    m_BakeResolution: 40
    m_AtlasSize: 1024
    m_AO: 0
    m_AOMaxDistance: 1
    m_CompAOExponent: 1
    m_CompAOExponentDirect: 0
    m_ExtractAmbientOcclusion: 0
    m_Padding: 2
    m_LightmapParameters: {fileID: 0}
    m_LightmapsBakeMode: 1
    m_TextureCompression: 1
    m_FinalGather: 0
    m_FinalGatherFiltering: 1
    m_FinalGatherRayCount: 256
    m_ReflectionCompression: 2
    m_MixedBakeMode: 2
    m_BakeBackend: 1
    m_PVRSampling: 1
    m_PVRDirectSampleCount: 32
    m_PVRSampleCount: 512
    m_PVRBounces: 2
    m_PVREnvironmentSampleCount: 256
    m_PVREnvironmentReferencePointCount: 2048
    m_PVRFilteringMode: 1
    m_PVRDenoiserTypeDirect: 1
    m_PVRDenoiserTypeIndirect: 1
    m_PVRDenoiserTypeAO: 1
    m_PVRFilterTypeDirect: 0
    m_PVRFilterTypeIndirect: 0
    m_PVRFilterTypeAO: 0
    m_PVREnvironmentMIS: 1
    m_PVRCulling: 1
    m_PVRFilteringGaussRadiusDirect: 1
    m_PVRFilteringGaussRadiusIndirect: 5
    m_PVRFilteringGaussRadiusAO: 2
    m_PVRFilteringAtrousPositionSigmaDirect: 0.5
    m_PVRFilteringAtrousPositionSigmaIndirect: 2
    m_PVRFilteringAtrousPositionSigmaAO: 1
    m_ShowResolutionOverlay: 1
    m_ExportTrainingData: 0
  m_LightingDataAsset: {fileID: 0}
  m_UseShadowmask: 1
--- !u!196 &4
NavMeshSettings:
  serializedVersion: 2
  m_ObjectHideFlags: 0
  m_BuildSettings:
    serializedVersion: 2
    agentTypeID: 0
    agentRadius: 0.5
    agentHeight: 2
    agentSlope: 45
    agentClimb: 0.4
    ledgeDropHeight: 0
    maxJumpAcrossDistance: 0
    minRegionArea: 2
    manualCellSize: 0
    cellSize: 0.16666667
    manualTileSize: 0
    tileSize: 256
    accuratePlacement: 0
    debug:
      m_Flags: 0
  m_NavMeshData: {fileID: 0}
--- !u!4 &1397053648 stripped
Transform:
  m_CorrespondingSourceObject: {fileID: 232238268772088746, guid: 5651816e0948e194abcec138a9f746e0,
    type: 3}
  m_PrefabInstance: {fileID: 232238269590152058}
  m_PrefabAsset: {fileID: 0}
--- !u!1001 &98269953433926913
PrefabInstance:
  m_ObjectHideFlags: 0
  serializedVersion: 2
  m_Modification:
    m_TransformParent: {fileID: 0}
    m_Modifications:
    - target: {fileID: 1495693319572946929, guid: 87384b2016a210d44b4eee7797e67395,
        type: 3}
      propertyPath: m_Name
      value: Reflection Probe
      objectReference: {fileID: 0}
    - target: {fileID: 1495693319572946895, guid: 87384b2016a210d44b4eee7797e67395,
        type: 3}
      propertyPath: m_LocalPosition.x
      value: 0
      objectReference: {fileID: 0}
    - target: {fileID: 1495693319572946895, guid: 87384b2016a210d44b4eee7797e67395,
        type: 3}
      propertyPath: m_LocalPosition.y
      value: 0.878
      objectReference: {fileID: 0}
    - target: {fileID: 1495693319572946895, guid: 87384b2016a210d44b4eee7797e67395,
        type: 3}
      propertyPath: m_LocalPosition.z
      value: 0
      objectReference: {fileID: 0}
    - target: {fileID: 1495693319572946895, guid: 87384b2016a210d44b4eee7797e67395,
        type: 3}
      propertyPath: m_LocalRotation.x
      value: -0
      objectReference: {fileID: 0}
    - target: {fileID: 1495693319572946895, guid: 87384b2016a210d44b4eee7797e67395,
        type: 3}
      propertyPath: m_LocalRotation.y
      value: -0
      objectReference: {fileID: 0}
    - target: {fileID: 1495693319572946895, guid: 87384b2016a210d44b4eee7797e67395,
        type: 3}
      propertyPath: m_LocalRotation.z
      value: -0
      objectReference: {fileID: 0}
    - target: {fileID: 1495693319572946895, guid: 87384b2016a210d44b4eee7797e67395,
        type: 3}
      propertyPath: m_LocalRotation.w
      value: 1
      objectReference: {fileID: 0}
    - target: {fileID: 1495693319572946895, guid: 87384b2016a210d44b4eee7797e67395,
        type: 3}
      propertyPath: m_RootOrder
      value: 1
      objectReference: {fileID: 0}
    - target: {fileID: 1495693319572946895, guid: 87384b2016a210d44b4eee7797e67395,
        type: 3}
      propertyPath: m_LocalEulerAnglesHint.x
      value: 0
      objectReference: {fileID: 0}
    - target: {fileID: 1495693319572946895, guid: 87384b2016a210d44b4eee7797e67395,
        type: 3}
      propertyPath: m_LocalEulerAnglesHint.y
      value: 0
      objectReference: {fileID: 0}
    - target: {fileID: 1495693319572946895, guid: 87384b2016a210d44b4eee7797e67395,
        type: 3}
      propertyPath: m_LocalEulerAnglesHint.z
      value: 0
      objectReference: {fileID: 0}
    m_RemovedComponents: []
  m_SourcePrefab: {fileID: 100100000, guid: 87384b2016a210d44b4eee7797e67395, type: 3}
--- !u!1001 &232238269590152058
PrefabInstance:
  m_ObjectHideFlags: 0
  serializedVersion: 2
  m_Modification:
    m_TransformParent: {fileID: 0}
    m_Modifications:
    - target: {fileID: 232238268772444042, guid: 5651816e0948e194abcec138a9f746e0,
        type: 3}
      propertyPath: m_Name
      value: Canyon_floor
      objectReference: {fileID: 0}
    - target: {fileID: 232238268772088746, guid: 5651816e0948e194abcec138a9f746e0,
        type: 3}
      propertyPath: m_LocalPosition.x
      value: 0
      objectReference: {fileID: 0}
    - target: {fileID: 232238268772088746, guid: 5651816e0948e194abcec138a9f746e0,
        type: 3}
      propertyPath: m_LocalPosition.y
      value: -0.56
      objectReference: {fileID: 0}
    - target: {fileID: 232238268772088746, guid: 5651816e0948e194abcec138a9f746e0,
        type: 3}
      propertyPath: m_LocalPosition.z
      value: -0
      objectReference: {fileID: 0}
    - target: {fileID: 232238268772088746, guid: 5651816e0948e194abcec138a9f746e0,
        type: 3}
      propertyPath: m_LocalRotation.x
      value: 0.000000081460335
      objectReference: {fileID: 0}
    - target: {fileID: 232238268772088746, guid: 5651816e0948e194abcec138a9f746e0,
        type: 3}
      propertyPath: m_LocalRotation.y
      value: 0
      objectReference: {fileID: 0}
    - target: {fileID: 232238268772088746, guid: 5651816e0948e194abcec138a9f746e0,
        type: 3}
      propertyPath: m_LocalRotation.z
      value: -0
      objectReference: {fileID: 0}
    - target: {fileID: 232238268772088746, guid: 5651816e0948e194abcec138a9f746e0,
        type: 3}
      propertyPath: m_LocalRotation.w
      value: 1
      objectReference: {fileID: 0}
    - target: {fileID: 232238268772088746, guid: 5651816e0948e194abcec138a9f746e0,
        type: 3}
      propertyPath: m_RootOrder
      value: 2
      objectReference: {fileID: 0}
    - target: {fileID: 232238268772088746, guid: 5651816e0948e194abcec138a9f746e0,
        type: 3}
      propertyPath: m_LocalEulerAnglesHint.x
      value: 0
      objectReference: {fileID: 0}
    - target: {fileID: 232238268772088746, guid: 5651816e0948e194abcec138a9f746e0,
        type: 3}
      propertyPath: m_LocalEulerAnglesHint.y
      value: 0
      objectReference: {fileID: 0}
    - target: {fileID: 232238268772088746, guid: 5651816e0948e194abcec138a9f746e0,
        type: 3}
      propertyPath: m_LocalEulerAnglesHint.z
      value: 0
      objectReference: {fileID: 0}
    m_RemovedComponents: []
  m_SourcePrefab: {fileID: 100100000, guid: 5651816e0948e194abcec138a9f746e0, type: 3}
--- !u!1001 &803078475916100951
PrefabInstance:
  m_ObjectHideFlags: 0
  serializedVersion: 2
  m_Modification:
    m_TransformParent: {fileID: 0}
    m_Modifications:
    - target: {fileID: 5032432083279074700, guid: aa5a541ff73dc634e871965210d74d9b,
        type: 3}
      propertyPath: m_Name
      value: Directional Light
      objectReference: {fileID: 0}
    - target: {fileID: 5032432083279074702, guid: aa5a541ff73dc634e871965210d74d9b,
        type: 3}
      propertyPath: m_LocalPosition.x
      value: -0.79
      objectReference: {fileID: 0}
    - target: {fileID: 5032432083279074702, guid: aa5a541ff73dc634e871965210d74d9b,
        type: 3}
      propertyPath: m_LocalPosition.y
      value: 12.77
      objectReference: {fileID: 0}
    - target: {fileID: 5032432083279074702, guid: aa5a541ff73dc634e871965210d74d9b,
        type: 3}
      propertyPath: m_LocalPosition.z
      value: 11.99
      objectReference: {fileID: 0}
    - target: {fileID: 5032432083279074702, guid: aa5a541ff73dc634e871965210d74d9b,
        type: 3}
      propertyPath: m_LocalRotation.x
      value: 0.34849072
      objectReference: {fileID: 0}
    - target: {fileID: 5032432083279074702, guid: aa5a541ff73dc634e871965210d74d9b,
        type: 3}
      propertyPath: m_LocalRotation.y
      value: -0.29623
      objectReference: {fileID: 0}
    - target: {fileID: 5032432083279074702, guid: aa5a541ff73dc634e871965210d74d9b,
        type: 3}
      propertyPath: m_LocalRotation.z
      value: 0.8725583
      objectReference: {fileID: 0}
    - target: {fileID: 5032432083279074702, guid: aa5a541ff73dc634e871965210d74d9b,
        type: 3}
      propertyPath: m_LocalRotation.w
      value: 0.17159274
      objectReference: {fileID: 0}
    - target: {fileID: 5032432083279074702, guid: aa5a541ff73dc634e871965210d74d9b,
        type: 3}
      propertyPath: m_RootOrder
      value: 0
      objectReference: {fileID: 0}
    - target: {fileID: 5032432083279074702, guid: aa5a541ff73dc634e871965210d74d9b,
        type: 3}
      propertyPath: m_LocalEulerAnglesHint.x
      value: 39.535004
      objectReference: {fileID: 0}
    - target: {fileID: 5032432083279074702, guid: aa5a541ff73dc634e871965210d74d9b,
        type: 3}
      propertyPath: m_LocalEulerAnglesHint.y
      value: 41.051003
      objectReference: {fileID: 0}
    - target: {fileID: 5032432083279074702, guid: aa5a541ff73dc634e871965210d74d9b,
        type: 3}
      propertyPath: m_LocalEulerAnglesHint.z
      value: 173.07501
      objectReference: {fileID: 0}
    m_RemovedComponents: []
  m_SourcePrefab: {fileID: 100100000, guid: aa5a541ff73dc634e871965210d74d9b, type: 3}
--- !u!1001 &1520229047567528047
PrefabInstance:
  m_ObjectHideFlags: 0
  serializedVersion: 2
  m_Modification:
    m_TransformParent: {fileID: 0}
    m_Modifications:
    - target: {fileID: 1520229048443872528, guid: 6abf202a892a6de4fb73a45239fe8593,
        type: 3}
      propertyPath: m_Name
      value: ThunderStormEffect
      objectReference: {fileID: 0}
    - target: {fileID: 1520229048443872528, guid: 6abf202a892a6de4fb73a45239fe8593,
        type: 3}
      propertyPath: m_IsActive
      value: 0
      objectReference: {fileID: 0}
    - target: {fileID: 1520229048443872751, guid: 6abf202a892a6de4fb73a45239fe8593,
        type: 3}
      propertyPath: m_LocalPosition.x
      value: 0
      objectReference: {fileID: 0}
    - target: {fileID: 1520229048443872751, guid: 6abf202a892a6de4fb73a45239fe8593,
        type: 3}
      propertyPath: m_LocalPosition.y
      value: 1.11
      objectReference: {fileID: 0}
    - target: {fileID: 1520229048443872751, guid: 6abf202a892a6de4fb73a45239fe8593,
        type: 3}
      propertyPath: m_LocalPosition.z
      value: 0.46
      objectReference: {fileID: 0}
    - target: {fileID: 1520229048443872751, guid: 6abf202a892a6de4fb73a45239fe8593,
        type: 3}
      propertyPath: m_LocalRotation.x
      value: 0
      objectReference: {fileID: 0}
    - target: {fileID: 1520229048443872751, guid: 6abf202a892a6de4fb73a45239fe8593,
        type: 3}
      propertyPath: m_LocalRotation.y
      value: 0
      objectReference: {fileID: 0}
    - target: {fileID: 1520229048443872751, guid: 6abf202a892a6de4fb73a45239fe8593,
        type: 3}
      propertyPath: m_LocalRotation.z
      value: 0
      objectReference: {fileID: 0}
    - target: {fileID: 1520229048443872751, guid: 6abf202a892a6de4fb73a45239fe8593,
        type: 3}
      propertyPath: m_LocalRotation.w
      value: 1
      objectReference: {fileID: 0}
    - target: {fileID: 1520229048443872751, guid: 6abf202a892a6de4fb73a45239fe8593,
        type: 3}
      propertyPath: m_RootOrder
      value: 4
      objectReference: {fileID: 0}
    - target: {fileID: 1520229048443872751, guid: 6abf202a892a6de4fb73a45239fe8593,
        type: 3}
      propertyPath: m_LocalEulerAnglesHint.x
      value: 0
      objectReference: {fileID: 0}
    - target: {fileID: 1520229048443872751, guid: 6abf202a892a6de4fb73a45239fe8593,
        type: 3}
      propertyPath: m_LocalEulerAnglesHint.y
      value: 0
      objectReference: {fileID: 0}
    - target: {fileID: 1520229048443872751, guid: 6abf202a892a6de4fb73a45239fe8593,
        type: 3}
      propertyPath: m_LocalEulerAnglesHint.z
      value: 0
      objectReference: {fileID: 0}
    - target: {fileID: 1719598531831682872, guid: 6abf202a892a6de4fb73a45239fe8593,
        type: 3}
      propertyPath: m_Materials.Array.data[0]
      value: 
      objectReference: {fileID: 2100000, guid: 0227585ad08c3da4ab3286a2f78d42f5, type: 2}
    - target: {fileID: 1520229048221566614, guid: 6abf202a892a6de4fb73a45239fe8593,
        type: 3}
      propertyPath: m_Materials.Array.data[0]
      value: 
      objectReference: {fileID: 2100000, guid: 0227585ad08c3da4ab3286a2f78d42f5, type: 2}
    m_RemovedComponents: []
  m_SourcePrefab: {fileID: 100100000, guid: 6abf202a892a6de4fb73a45239fe8593, type: 3}
--- !u!1001 &4641634079118911674
PrefabInstance:
  m_ObjectHideFlags: 0
  serializedVersion: 2
  m_Modification:
    m_TransformParent: {fileID: 0}
    m_Modifications:
    - target: {fileID: 1451630633815714, guid: 5b900f9858a991b4b87d5d67bc4a90ee, type: 3}
      propertyPath: m_Name
      value: SurvivalCharacter_high
      objectReference: {fileID: 0}
    - target: {fileID: 4701023620219376, guid: 5b900f9858a991b4b87d5d67bc4a90ee, type: 3}
      propertyPath: m_LocalPosition.x
      value: 0
      objectReference: {fileID: 0}
    - target: {fileID: 4701023620219376, guid: 5b900f9858a991b4b87d5d67bc4a90ee, type: 3}
      propertyPath: m_LocalPosition.y
      value: 0
      objectReference: {fileID: 0}
    - target: {fileID: 4701023620219376, guid: 5b900f9858a991b4b87d5d67bc4a90ee, type: 3}
      propertyPath: m_LocalPosition.z
      value: 0
      objectReference: {fileID: 0}
    - target: {fileID: 4701023620219376, guid: 5b900f9858a991b4b87d5d67bc4a90ee, type: 3}
      propertyPath: m_LocalRotation.x
      value: 0
      objectReference: {fileID: 0}
    - target: {fileID: 4701023620219376, guid: 5b900f9858a991b4b87d5d67bc4a90ee, type: 3}
      propertyPath: m_LocalRotation.y
      value: 0
      objectReference: {fileID: 0}
    - target: {fileID: 4701023620219376, guid: 5b900f9858a991b4b87d5d67bc4a90ee, type: 3}
      propertyPath: m_LocalRotation.z
      value: 0
      objectReference: {fileID: 0}
    - target: {fileID: 4701023620219376, guid: 5b900f9858a991b4b87d5d67bc4a90ee, type: 3}
      propertyPath: m_LocalRotation.w
      value: 1
      objectReference: {fileID: 0}
    - target: {fileID: 4701023620219376, guid: 5b900f9858a991b4b87d5d67bc4a90ee, type: 3}
      propertyPath: m_RootOrder
      value: 3
      objectReference: {fileID: 0}
    - target: {fileID: 4701023620219376, guid: 5b900f9858a991b4b87d5d67bc4a90ee, type: 3}
      propertyPath: m_LocalEulerAnglesHint.x
      value: 0
      objectReference: {fileID: 0}
    - target: {fileID: 4701023620219376, guid: 5b900f9858a991b4b87d5d67bc4a90ee, type: 3}
      propertyPath: m_LocalEulerAnglesHint.y
      value: 0
      objectReference: {fileID: 0}
    - target: {fileID: 4701023620219376, guid: 5b900f9858a991b4b87d5d67bc4a90ee, type: 3}
      propertyPath: m_LocalEulerAnglesHint.z
      value: 0
      objectReference: {fileID: 0}
    - target: {fileID: 4641634078888903776, guid: 5b900f9858a991b4b87d5d67bc4a90ee,
        type: 3}
      propertyPath: sharedProfile
      value: 
      objectReference: {fileID: 11400000, guid: 30c76ed8c1bfdec468bc22dee567578c,
        type: 2}
    m_RemovedComponents: []
  m_SourcePrefab: {fileID: 100100000, guid: 5b900f9858a991b4b87d5d67bc4a90ee, type: 3}
--- !u!1001 &4992483260846760182
PrefabInstance:
  m_ObjectHideFlags: 0
  serializedVersion: 2
  m_Modification:
    m_TransformParent: {fileID: 0}
    m_Modifications:
    - target: {fileID: 4992483261681159827, guid: 6261805ff087ba643a7ee51830368343,
        type: 3}
      propertyPath: m_Name
      value: FireStormEffect
      objectReference: {fileID: 0}
    - target: {fileID: 4992483261681159827, guid: 6261805ff087ba643a7ee51830368343,
        type: 3}
      propertyPath: m_IsActive
      value: 0
      objectReference: {fileID: 0}
    - target: {fileID: 4992483261681159824, guid: 6261805ff087ba643a7ee51830368343,
        type: 3}
      propertyPath: m_LocalPosition.x
      value: 0
      objectReference: {fileID: 0}
    - target: {fileID: 4992483261681159824, guid: 6261805ff087ba643a7ee51830368343,
        type: 3}
      propertyPath: m_LocalPosition.y
      value: 1.11
      objectReference: {fileID: 0}
    - target: {fileID: 4992483261681159824, guid: 6261805ff087ba643a7ee51830368343,
        type: 3}
      propertyPath: m_LocalPosition.z
      value: 0.46
      objectReference: {fileID: 0}
    - target: {fileID: 4992483261681159824, guid: 6261805ff087ba643a7ee51830368343,
        type: 3}
      propertyPath: m_LocalRotation.x
      value: 0
      objectReference: {fileID: 0}
    - target: {fileID: 4992483261681159824, guid: 6261805ff087ba643a7ee51830368343,
        type: 3}
      propertyPath: m_LocalRotation.y
      value: 0
      objectReference: {fileID: 0}
    - target: {fileID: 4992483261681159824, guid: 6261805ff087ba643a7ee51830368343,
        type: 3}
      propertyPath: m_LocalRotation.z
      value: 0
      objectReference: {fileID: 0}
    - target: {fileID: 4992483261681159824, guid: 6261805ff087ba643a7ee51830368343,
        type: 3}
      propertyPath: m_LocalRotation.w
      value: 1
      objectReference: {fileID: 0}
    - target: {fileID: 4992483261681159824, guid: 6261805ff087ba643a7ee51830368343,
        type: 3}
      propertyPath: m_RootOrder
      value: 5
      objectReference: {fileID: 0}
    - target: {fileID: 4992483261681159824, guid: 6261805ff087ba643a7ee51830368343,
        type: 3}
      propertyPath: m_LocalEulerAnglesHint.x
      value: 0
      objectReference: {fileID: 0}
    - target: {fileID: 4992483261681159824, guid: 6261805ff087ba643a7ee51830368343,
        type: 3}
      propertyPath: m_LocalEulerAnglesHint.y
      value: 0
      objectReference: {fileID: 0}
    - target: {fileID: 4992483261681159824, guid: 6261805ff087ba643a7ee51830368343,
        type: 3}
      propertyPath: m_LocalEulerAnglesHint.z
      value: 0
      objectReference: {fileID: 0}
    - target: {fileID: 8109399003525869398, guid: 6261805ff087ba643a7ee51830368343,
        type: 3}
      propertyPath: CollisionModule.plane0
      value: 
      objectReference: {fileID: 1397053648}
    - target: {fileID: 4992483262321470104, guid: 6261805ff087ba643a7ee51830368343,
        type: 3}
      propertyPath: m_Materials.Array.data[0]
      value: 
      objectReference: {fileID: 2100000, guid: 0227585ad08c3da4ab3286a2f78d42f5, type: 2}
    - target: {fileID: 9110254699026679646, guid: 6261805ff087ba643a7ee51830368343,
        type: 3}
      propertyPath: CollisionModule.plane0
      value: 
      objectReference: {fileID: 1397053648}
    - target: {fileID: 9109996814671523560, guid: 6261805ff087ba643a7ee51830368343,
        type: 3}
      propertyPath: m_RenderMode
      value: 5
      objectReference: {fileID: 0}
    - target: {fileID: 9109996814671523560, guid: 6261805ff087ba643a7ee51830368343,
        type: 3}
      propertyPath: m_Materials.Array.data[0]
      value: 
      objectReference: {fileID: 0}
    - target: {fileID: 9109996814671523560, guid: 6261805ff087ba643a7ee51830368343,
        type: 3}
      propertyPath: m_Mesh
      value: 
      objectReference: {fileID: 0}
    - target: {fileID: 9110067923848560666, guid: 6261805ff087ba643a7ee51830368343,
        type: 3}
      propertyPath: m_VertexStreams.Array.size
      value: 3
      objectReference: {fileID: 0}
    - target: {fileID: 9110067923848560666, guid: 6261805ff087ba643a7ee51830368343,
        type: 3}
      propertyPath: m_UseCustomVertexStreams
      value: 1
      objectReference: {fileID: 0}
    - target: {fileID: 9110067923848560666, guid: 6261805ff087ba643a7ee51830368343,
        type: 3}
      propertyPath: m_VertexStreams.Array.data[1]
      value: 3
      objectReference: {fileID: 0}
    - target: {fileID: 9110067923848560666, guid: 6261805ff087ba643a7ee51830368343,
        type: 3}
      propertyPath: m_VertexStreams.Array.data[2]
      value: 4
      objectReference: {fileID: 0}
    - target: {fileID: 9110067923848560666, guid: 6261805ff087ba643a7ee51830368343,
        type: 3}
      propertyPath: m_Materials.Array.data[0]
      value: 
      objectReference: {fileID: 2100000, guid: 776677ab3818fb249adaca05f4e04545, type: 2}
    m_RemovedComponents: []
  m_SourcePrefab: {fileID: 100100000, guid: 6261805ff087ba643a7ee51830368343, type: 3}
